Aprendizaje Máquina - 5 Regularización y variabilidad
…
Los coeficientes del modelo penalizado son:

coefs_penalizado <- tidy(mod_reg) 

Attaching package: 'Matrix'

The following objects are masked from 'package:tidyr':

    expand, pack, unpack

Loaded glmnet 4.1-8

coefs_penalizado

# A tibble: 101 × 3
   term        estimate penalty
   <chr>          <dbl>   <dbl>
 1 (Intercept)  -0.236      0.1
 2 V1           -0.0774     0.1
 3 V2            0.0340     0.1
 4 V3           -0.0405     0.1
 5 V4            0.151      0.1
 6 V5            0.150      0.1
 7 V6            0.114      0.1
 8 V7           -0.207      0.1
 9 V8            0.0148     0.1
10 V9            0.191      0.1
# ℹ 91 more rows
…
