Aprendizaje Máquina - 10 Calibración de probabilidades
…
conjuntos_conf <- preds_larga_tbl |> group_by(id) |> 
  filter(prob > q) |> 
  select(id, articulo = articulo_prob, prob)
conjuntos_conf

# A tibble: 14,571 × 3
# Groups:   id [10,000]
      id articulo     prob
   <int> <chr>       <dbl>
 1     1 bota        0.815
 2     2 suéter      0.923
 3     3 pantalón    1.00 
 4     4 pantalón    1.00 
 5     5 camisa      0.626
 6     5 playera/top 0.200
 7     6 pantalón    0.996
 8     7 abrigo      0.938
 9     8 camisa      0.781
10     8 abrigo      0.170
# ℹ 14,561 more rows
…
